^D:\PROGRAMACION\C++\UNREALEXAM\PREGUNTA3\PREGUNTA3\PREGUNTA3\DEBUG\.NETFRAMEWORK,VERSION=V4.7.2.ASSEMBLYATTRIBUTES.OBJ|D:\PROGRAMACION\C++\UNREALEXAM\PREGUNTA3\PREGUNTA3\PREGUNTA3\DEBUG\APP.RES|D:\PROGRAMACION\C++\UNREALEXAM\PREGUNTA3\PREGUNTA3\PREGUNTA3\DEBUG\ASSEMBLYINFO.OBJ|D:\PROGRAMACION\C++\UNREALEXAM\PREGUNTA3\PREGUNTA3\PREGUNTA3\DEBUG\CPPCLR_WINFORMSPROJEKT.OBJ|D:\PROGRAMACION\C++\UNREALEXAM\PREGUNTA3\PREGUNTA3\PREGUNTA3\DEBUG\FORM1.OBJ|D:\PROGRAMACION\C++\UNREALEXAM\PREGUNTA3\PREGUNTA3\PREGUNTA3\DEBUG\PCH.OBJ
/OUT:"D:\PROGRAMACION\C++\UNREALEXAM\PREGUNTA3\PREGUNTA3\DEBUG\PREGUNTA3.EXE" /INCREMENTAL /NOLOGO /ASSEMBLYRESOURCE:DEBUG\PREGUNTA3.FORM1.RESOURCES /MANIFEST /MANIFESTUAC:"level='asInvoker' uiAccess='false'" /manifest:embed /DEBUG:FULL /PDB:"D:\PROGRAMACION\C++\UNREALEXAM\PREGUNTA3\PREGUNTA3\DEBUG\PREGUNTA3.PDB" /ASSEMBLYDEBUG /SUBSYSTEM:WINDOWS /TLBID:1 /ENTRY:"main" /DYNAMICBASE /FIXED:NO /NXCOMPAT /MACHINE:X86 DEBUG\APP.RES
DEBUG\ASSEMBLYINFO.OBJ
DEBUG\CPPCLR_WINFORMSPROJEKT.OBJ
DEBUG\FORM1.OBJ
DEBUG\PCH.OBJ
"DEBUG\.NETFRAMEWORK,VERSION=V4.7.2.ASSEMBLYATTRIBUTES.OBJ"
